{
  "project_info": {
    "project_number": "411886406668",
    "project_id": "bharattrack-9b5b1",
    "storage_bucket": "bharattrack-9b5b1.appspot.com"
  },
  "client": [
    {
      "client_info": {
        "mobilesdk_app_id": "1:411886406668:android:4afbb2e62265703451b229",
        "android_client_info": {
          "package_name": "com.BtsBharatTrack.ionic"
        }
      },
      "oauth_client": [
        {
          "client_id": "411886406668-khc4b6kagmopq7dgjcvmq5vjiudatc6j.apps.googleusercontent.com",
          "client_type": 3
        }
      ],
      "api_key": [
        {
          "current_key": "AIzaSyB2UGxVMSlpU9WYVpd0JWjgR7G0Cyp2iqY"
        }
      ],
      "services": {
        "appinvite_service": {
          "other_platform_oauth_client": [
            {
              "client_id": "411886406668-khc4b6kagmopq7dgjcvmq5vjiudatc6j.apps.googleusercontent.com",
              "client_type": 3
            }
          ]
        }
      }
    },
    {
      "client_info": {
        "mobilesdk_app_id": "1:411886406668:android:cb4dc957066dfc5c51b229",
        "android_client_info": {
          "package_name": "com.niravigps.ionic"
        }
      },
      "oauth_client": [
        {
          "client_id": "411886406668-khc4b6kagmopq7dgjcvmq5vjiudatc6j.apps.googleusercontent.com",
          "client_type": 3
        }
      ],
      "api_key": [
        {
          "current_key": "AIzaSyB2UGxVMSlpU9WYVpd0JWjgR7G0Cyp2iqY"
        }
      ],
      "services": {
        "appinvite_service": {
          "other_platform_oauth_client": [
            {
              "client_id": "411886406668-khc4b6kagmopq7dgjcvmq5vjiudatc6j.apps.googleusercontent.com",
              "client_type": 3
            }
          ]
        }
      }
    },
    {
      "client_info": {
        "mobilesdk_app_id": "1:411886406668:android:93b932c543398a8d51b229",
        "android_client_info": {
          "package_name": "com.roadgpstrackpro.ionic"
        }
      },
      "oauth_client": [
        {
          "client_id": "411886406668-khc4b6kagmopq7dgjcvmq5vjiudatc6j.apps.googleusercontent.com",
          "client_type": 3
        }
      ],
      "api_key": [
        {
          "current_key": "AIzaSyB2UGxVMSlpU9WYVpd0JWjgR7G0Cyp2iqY"
        }
      ],
      "services": {
        "appinvite_service": {
          "other_platform_oauth_client": [
            {
              "client_id": "411886406668-khc4b6kagmopq7dgjcvmq5vjiudatc6j.apps.googleusercontent.com",
              "client_type": 3
            }
          ]
        }
      }
    },
    {
      "client_info": {
        "mobilesdk_app_id": "1:411886406668:android:7bc0aa100f93115a51b229",
        "android_client_info": {
          "package_name": "com.testing1.in"
        }
      },
      "oauth_client": [
        {
          "client_id": "411886406668-khc4b6kagmopq7dgjcvmq5vjiudatc6j.apps.googleusercontent.com",
          "client_type": 3
        }
      ],
      "api_key": [
        {
          "current_key": "AIzaSyB2UGxVMSlpU9WYVpd0JWjgR7G0Cyp2iqY"
        }
      ],
      "services": {
        "appinvite_service": {
          "other_platform_oauth_client": [
            {
              "client_id": "411886406668-khc4b6kagmopq7dgjcvmq5vjiudatc6j.apps.googleusercontent.com",
              "client_type": 3
            }
          ]
        }
      }
    },
    {
      "client_info": {
        "mobilesdk_app_id": "1:411886406668:android:3289f3523d586b4251b229",
        "android_client_info": {
          "package_name": "com.vdptrack.ionic"
        }
      },
      "oauth_client": [
        {
          "client_id": "411886406668-khc4b6kagmopq7dgjcvmq5vjiudatc6j.apps.googleusercontent.com",
          "client_type": 3
        }
      ],
      "api_key": [
        {
          "current_key": "AIzaSyB2UGxVMSlpU9WYVpd0JWjgR7G0Cyp2iqY"
        }
      ],
      "services": {
        "appinvite_service": {
          "other_platform_oauth_client": [
            {
              "client_id": "411886406668-khc4b6kagmopq7dgjcvmq5vjiudatc6j.apps.googleusercontent.com",
              "client_type": 3
            }
          ]
        }
      }
    },
    {
      "client_info": {
        "mobilesdk_app_id": "1:411886406668:android:a53e4ab28058566251b229",
        "android_client_info": {
          "package_name": "gps.trackuppro.vts"
        }
      },
      "oauth_client": [
        {
          "client_id": "411886406668-khc4b6kagmopq7dgjcvmq5vjiudatc6j.apps.googleusercontent.com",
          "client_type": 3
        }
      ],
      "api_key": [
        {
          "current_key": "AIzaSyB2UGxVMSlpU9WYVpd0JWjgR7G0Cyp2iqY"
        }
      ],
      "services": {
        "appinvite_service": {
          "other_platform_oauth_client": [
            {
              "client_id": "411886406668-khc4b6kagmopq7dgjcvmq5vjiudatc6j.apps.googleusercontent.com",
              "client_type": 3
            }
          ]
        }
      }
    }
  ],
  "configuration_version": "1"
}